{
    "version": "1.0.0",
    "elm-version": "0.15.0 <= v < 0.16.0",
    "summary": "An adventure game written in Elm.",
    "repository": "https://github.com/rtfeldman/lambdaconf-2015-elm-workshop.git",
    "license": "Apache2",
    "source-directories": [
        "."
    ],
    "exposed-modules": [],
    "dependencies": {
        "elm-lang/core": "2.0.0 <= v < 3.0.0"
    }
}
